{
    "bio": "mancing weluth",
    "testimonials": [
        {
            "name": "Fani Triastowo",
            "testimonial": "Mayuh"
        },
        {
            "name": "Kukuh Sabrowi",
            "testimonial": "Kie putune kaki daslam, ponakane wa taslim."
        },
        {
            "name": "Enggar Suma Kiasta",
            "testimonial": "Kita belajar GIT hari ini?"
        },
        {
            "name": "Lisa Rufaeda",
            "testimonial": "Okee"
        },
        {
            "name": "Aep Saprul Mujahid",
            "testimonial": "saya sebenarnya tidak mau bikin testimoni, tapi karena untuk kebaikan bersama mas ENGGAR ya mau gimana lagi"
        },
        {
            "name": "Triyadi",
            "testimonial": "nuju diajar git dasar mantap"
        }
    ]
}
