{
    "bio": "Pengen dolan..",
    "testimonials": [
        {
            "name": "Jipet",
            "testimonial": "Caub apa?"
        },
        {
            "name": "Kaki Reja",
            "testimonial": "Jejek ndase!!!"
        },
        {
            "name": "Triyadi",
            "testimonial": "nuju diajar git dasar mantap"
        }
    ]
}
