{
    "bio": "Fani Triastowo",
    "testimonials": [
        {
            "name": "Kukuh Sabrowi",
            "testimonial": "Fan, bali fan!"
        },
        {
            "name": "Fani",
            "testimonial": "Mantull"
        },
        {
            "name": "Fani Triastowo",
            "testimonial": "Kita belajar GIT hari ini?"
        },
        {
            "name": "Lisa Rufaeda",
            "testimonial": "Okee"
        },
        {
            "name": "Aep Saprul Mujahid",
            "testimonial": "saya sebenarnya tidak mau bikin testimoni, tapi karena untuk kebaikan bersama mas FANI ya mau gimana lagi"
        },
        {
            "name": "Fani Triastowo",
            "testimonial": "Minal.. Minal.. minal.."
        },
        {
            "name": "Triyadi",
            "testimonial": "nuju diajar git dasar mantap"
        }
    ]
}
